RNCBIGene: NCBI Gene annotation in parquet • RNCBIGene
…
Example: find the UniProt identifiers associated with gene ORMDL3 in humans.

pro = litpop[["lit.gene2accession.parquet"]] |> 
   filter(`#tax_id` == 9606, Symbol == "ORMDL3") |> 
   select(protein_accession.version) |> collect() |> pull() |> setdiff("-")
litpop[["lit.gene_refseq_uniprotkb_collab.parquet"]] |> filter(NCBI_tax_id == 9606) |> 
   filter(`#NCBI_protein_accession` %in% pro)  |> collect()

## # A tibble: 36 × 5
##    `#NCBI_protein_accession` UniProtKB_protein_ac…¹ NCBI_tax_id UniProtKB_tax_id
##    <chr>                     <chr>                        <int>            <int>
##  1 NP_001307730.1            B3KS83                        9606             9606
##  2 NP_001307730.1            J3QRM9                        9606             9606
##  3 NP_001307730.1            Q6UY83                        9606             9606
##  4 NP_001307730.1            Q8N138                        9606             9606
##  5 NP_001307731.1            B3KS83                        9606             9606
##  6 NP_001307731.1            J3QRM9                        9606             9606
##  7 NP_001307731.1            Q6UY83                        9606             9606
##  8 NP_001307731.1            Q8N138                        9606             9606
##  9 NP_001307732.1            B3KS83                        9606             9606
## 10 NP_001307732.1            J3QRM9                        9606             9606
## # ℹ 26 more rows
## # ℹ abbreviated name: ¹​UniProtKB_protein_accession
## # ℹ 1 more variable: method <chr>
…
